﻿[
	{
		"_id": "co-0",
		"_parentId": "course",
		"_type": "page",
		"_classes": "",
		"height":"570",
		"title": "Introducción",
		"displayTitle": "Introducción",
		"pageBody": "Familiarízate con uno de los objetivos publicitarios más poderosos de Facebook: las conversiones.",
		"body": "Familiarízate con uno de los objetivos publicitarios más poderosos de Facebook: las conversiones.",
		"_graphic": {
			"src": "course/en/images/contentobjects/co1.png",
			"alt": "Información general"
		},
		"linkText": "Ver",
		"durationLabel": "Duración:",
		"duration": "7&#160;min",
		"_pageLevelProgress": {
			"_isEnabled": true
		}
	},
    
    {
		"_id": "co-100",
		"_parentId": "course",
		"_type": "page",
		"_classes": "",
		"height":"570",
		"title": "La receta de los anuncios de conversión",
		"displayTitle": "La receta de los anuncios de conversión",
		"pageBody": "Conoce los ingredientes que se necesitan para crear un anuncio de conversión y descubre cómo se combinan. ",
		"body": "Conoce los ingredientes que se necesitan para crear un anuncio de conversión y descubre cómo se combinan. ",
		"_graphic": {
			"src": "course/en/images/contentobjects/co-2.png",
			"alt": "Información general"
		},
		"linkText": "Ver",
		"durationLabel": "Duración:",
		"duration": "6&#160;min",
		"_pageLevelProgress": {
			"_isEnabled": true
		}
	},
        {
		"_id": "co-150",
		"_parentId": "course",
		"_type": "page",
		"_classes": "",
		"height":"570",
		"title": "Nociones básicas",
		"displayTitle": "Nociones básicas",
		"pageBody": "Aprende las nociones básicas para implementar el píxel y los eventos de la aplicación, y medir las conversiones. ",
		"body": "Aprende las nociones básicas para implementar el píxel y los eventos de la aplicación, y medir las conversiones.   ",
		"_graphic": {
			"src": "course/en/images/contentobjects/before.png",
			"alt": "Información general"
		},
		"linkText": "Ver",
		"durationLabel": "Duración:",
		"duration": "8&#160;min",
		"_pageLevelProgress": {
			"_isEnabled": true
		}
	},
    {
		"_id": "co-200",
		"_parentId": "course",
		"_type": "page",
		"_classes": "",
		"height":"570",
		"title": "El arsenal de conversión ",
		"displayTitle": "El arsenal de conversión",
		"pageBody": "Conoce las herramientas adicionales que puedes usar para aumentar el poder de los anuncios de conversión.",
		"body": "Conoce las herramientas adicionales que puedes usar para aumentar el poder de los anuncios de conversión.",
		"_graphic": {
			"src": "course/en/images/contentobjects/arsenal.jpg",
			"alt": "Información general"
		},
		"linkText": "Ver",
		"durationLabel": "Duración:",
		"duration": "8&#160;min",
		"_pageLevelProgress": {
			"_isEnabled": true
		}
	},

    {
		"_id": "co-300",
		"_parentId": "course",
		"_type": "page",
		"_classes": "",
		"height":"570",
		"title": "Conversiones en el sitio web",
		"displayTitle": "Conversión en el sitio web",
		"pageBody": "Aprende a crear anuncios que atraigan a las personas al sitio web y alcanza el objetivo de conversión.",
		"body": "Aprende a crear anuncios que atraigan a las personas al sitio web y alcanza el objetivo de conversión.",
		"_graphic": {
			"src": "course/en/images/contentobjects/co4.png",
			"alt": "Información general"
		},
		"linkText": "Ver",
		"durationLabel": "Duración:",
		"duration": "9&#160;min",
		"_pageLevelProgress": {
			"_isEnabled": true
		}
	},
      {
		"_id": "co-340a",
		"_parentId": "co-340a",
		"_type": "page",
		"_classes": "",
		"height":"570",
		"title": "Opciones avanzadas para los anuncios de conversión en el sitio web",
		"displayTitle": "Opciones avanzadas para los anuncios de conversión en el sitio web",
		"pageBody": "Descubre cómo aplicar funciones avanzadas para aprovechar al máximo los anuncios de conversión en el sitio web.",
		"body": "Descubre cómo aplicar funciones avanzadas para aprovechar al máximo los anuncios de conversión en el sitio web.",
		"_graphic": {
			"src": "course/en/images/contentobjects/co7.png",
			"alt": "Información general"
		},
		"linkText": "Ver",
		"durationLabel": "Duración:",
		"duration": "7&#160;min",
		"_pageLevelProgress": {
			"_isEnabled": true
		}
	},
    {
		"_id": "co-400",
		"_parentId": "course",
		"_type": "page",
		"_classes": "",
		"height":"570",
		"title": "Conversiones en Messenger",
		"displayTitle": "Conversiones en Messenger",
		"pageBody": "Aprende a crear anuncios que dirijan a las personas a Messenger y experiencias personalizadas en esta plataforma para las personas que hagan clic en el anuncio.",
		"body": "Aprende a crear anuncios que dirijan a las personas a Messenger y experiencias personalizadas en esta plataforma para las personas que hagan clic en el anuncio.",
		"_graphic": {
			"src": "course/en/images/contentobjects/co5.png",
			"alt": "Información general"
		},
		"linkText": "Ver",
		"durationLabel": "Duración:",
		"duration": "8&#160;min",
		"_pageLevelProgress": {
			"_isEnabled": true
		}
	},
    {
		"_id": "co-500",
		"_parentId": "course",
		"_type": "page",
		"_classes": "",
		"height":"570",
		"title": "Conversiones en la aplicación",
		"displayTitle": "Conversiones en la aplicación",
		"pageBody": "Aprende a usar las funciones especiales para crear anuncios que generen conversiones en la aplicación para celulares.",
		"body": "Aprende a usar las funciones especiales para crear anuncios que generen conversiones en la aplicación para celulares.",
		"_graphic": {
			"src": "course/en/images/contentobjects/co6.png",
			"alt": "Información general"
		},
		"linkText": "Ver",
		"durationLabel": "Duración:",
		"duration": "8&#160;min",
		"_pageLevelProgress": {
			"_isEnabled": true
		}
	},
      
     {
		"_id": "co-700",
		"_parentId": "course",
		"_type": "page",
		"_classes": "",
		"height":"570",
		"title": "Evaluación de conocimientos",
		"displayTitle": "Evaluación de conocimientos",
		"pageBody": "¿Estás listo para demostrar lo que sabes sobre el objetivo publicitario de conversiones?",
		"body": "¿Estás listo para demostrar lo que sabes sobre cómo trabajar con el objetivo publicitario de conversiones?",
		"_graphic": {
			"src": "course/en/images/contentobjects/co8.png",
			"alt": "Información general"
		},
		"linkText": "Ver",
		"durationLabel": "Duración:",
		"duration": "4&#160;min",
		"_pageLevelProgress": {
			"_isEnabled": true
		}
	}
]
